<?xml version="1.0" encoding="UTF-8" standalone="no"?>
<graphml xmlns="http://graphml.graphdrawing.org/xmlns" xmlns:java="http://www.yworks.com/xml/yfiles-common/1.0/java" xmlns:sys="http://www.yworks.com/xml/yfiles-common/markup/primitives/2.0" xmlns:x="http://www.yworks.com/xml/yfiles-common/markup/2.0" xmlns:xsi="http://www.w3.org/2001/XMLSchema-instance" xmlns:y="http://www.yworks.com/xml/graphml" xmlns:yed="http://www.yworks.com/xml/yed/3" xsi:schemaLocation="http://graphml.graphdrawing.org/xmlns http://www.yworks.com/xml/schema/graphml/1.1/ygraphml.xsd">
  <!--Created by yEd 3.22-->
  <key attr.name="Description" attr.type="string" for="graph" id="d0"/>
  <key for="port" id="d1" yfiles.type="portgraphics"/>
  <key for="port" id="d2" yfiles.type="portgeometry"/>
  <key for="port" id="d3" yfiles.type="portuserdata"/>
  <key attr.name="url" attr.type="string" for="node" id="d4"/>
  <key attr.name="description" attr.type="string" for="node" id="d5"/>
  <key for="node" id="d6" yfiles.type="nodegraphics"/>
  <key for="graphml" id="d7" yfiles.type="resources"/>
  <key attr.name="url" attr.type="string" for="edge" id="d8"/>
  <key attr.name="description" attr.type="string" for="edge" id="d9"/>
  <key for="edge" id="d10" yfiles.type="edgegraphics"/>
  <graph edgedefault="directed" id="G">
    <data key="d0"/>
    <node id="n0" yfiles.foldertype="group">
      <data key="d5"/>
      <data key="d6">
        <y:TableNode configuration="YED_TABLE_NODE">
          <y:Geometry height="454.0" width="624.0" x="234.0" y="165.0"/>
          <y:Fill color="#ECF5FF" color2="#0042F440" transparent="false"/>
          <y:BorderStyle color="#000000" type="line" width="1.0"/>
          <y:NodeLabel alignment="center" autoSizePolicy="content" fontFamily="Dialog" fontSize="15" fontStyle="plain" hasBackgroundColor="false" hasLineColor="false" height="24.430143356323242" horizontalTextPosition="center" iconTextGap="4" modelName="internal" modelPosition="t" textColor="#000000" verticalTextPosition="bottom" visible="true" width="78.25050354003906" x="272.87474822998047" xml:space="preserve" y="4.0">Hållbarhet</y:NodeLabel>
          <y:NodeLabel alignment="center" autoSizePolicy="content" fontFamily="Dialog" fontSize="12" fontStyle="plain" hasBackgroundColor="false" hasLineColor="false" height="20.344114303588867" horizontalTextPosition="center" iconTextGap="4" modelName="custom" rotationAngle="270.0" textColor="#000000" verticalTextPosition="bottom" visible="true" width="76.64849853515625" x="3.0" xml:space="preserve" y="55.675750732421875">Environment<y:LabelModel><y:RowNodeLabelModel offset="3.0"/></y:LabelModel><y:ModelParameter><y:RowNodeLabelModelParameter horizontalPosition="0.0" id="row_0" inside="true"/></y:ModelParameter></y:NodeLabel>
          <y:NodeLabel alignment="center" autoSizePolicy="content" fontFamily="Dialog" fontSize="12" fontStyle="plain" hasBackgroundColor="false" hasLineColor="false" height="20.344114303588867" horizontalTextPosition="center" iconTextGap="4" modelName="custom" rotationAngle="270.0" textColor="#000000" verticalTextPosition="bottom" visible="true" width="43.924285888671875" x="3.0" xml:space="preserve" y="152.03785705566406">Society<y:LabelModel><y:RowNodeLabelModel offset="3.0"/></y:LabelModel><y:ModelParameter><y:RowNodeLabelModelParameter horizontalPosition="0.0" id="row_1" inside="true"/></y:ModelParameter></y:NodeLabel>
          <y:NodeLabel alignment="center" autoSizePolicy="content" fontFamily="Dialog" fontSize="12" fontStyle="plain" hasBackgroundColor="false" hasLineColor="false" height="20.344114303588867" horizontalTextPosition="center" iconTextGap="4" modelName="custom" textColor="#000000" verticalTextPosition="bottom" visible="true" width="65.0924072265625" x="51.45379638671875" xml:space="preserve" y="33.0">Innovation<y:LabelModel><y:ColumnNodeLabelModel offset="3.0"/></y:LabelModel><y:ModelParameter><y:ColumnNodeLabelModelParameter id="column_0" inside="true" verticalPosition="0.0"/></y:ModelParameter></y:NodeLabel>
          <y:NodeLabel alignment="center" autoSizePolicy="content" fontFamily="Dialog" fontSize="12" fontStyle="plain" hasBackgroundColor="false" hasLineColor="false" height="20.344114303588867" horizontalTextPosition="center" iconTextGap="4" modelName="custom" textColor="#000000" verticalTextPosition="bottom" visible="true" width="63.124420166015625" x="172.4377899169922" xml:space="preserve" y="33.0">Utveckling<y:LabelModel><y:ColumnNodeLabelModel offset="3.0"/></y:LabelModel><y:ModelParameter><y:ColumnNodeLabelModelParameter id="column_1" inside="true" verticalPosition="0.0"/></y:ModelParameter></y:NodeLabel>
          <y:NodeLabel alignment="center" autoSizePolicy="content" fontFamily="Dialog" fontSize="12" fontStyle="plain" hasBackgroundColor="false" hasLineColor="false" height="20.344114303588867" horizontalTextPosition="center" iconTextGap="4" modelName="custom" textColor="#000000" verticalTextPosition="bottom" visible="true" width="66.78445434570312" x="290.60777282714844" xml:space="preserve" y="33.0">Produktion<y:LabelModel><y:ColumnNodeLabelModel offset="3.0"/></y:LabelModel><y:ModelParameter><y:ColumnNodeLabelModelParameter id="column_2" inside="true" verticalPosition="0.0"/></y:ModelParameter></y:NodeLabel>
          <y:NodeLabel alignment="center" autoSizePolicy="content" fontFamily="Dialog" fontSize="12" fontStyle="plain" hasBackgroundColor="false" hasLineColor="false" height="20.344114303588867" horizontalTextPosition="center" iconTextGap="4" modelName="custom" textColor="#000000" verticalTextPosition="bottom" visible="true" width="59.63238525390625" x="414.1838073730469" xml:space="preserve" y="33.0">Underhåll<y:LabelModel><y:ColumnNodeLabelModel offset="3.0"/></y:LabelModel><y:ModelParameter><y:ColumnNodeLabelModelParameter id="column_3" inside="true" verticalPosition="0.0"/></y:ModelParameter></y:NodeLabel>
          <y:NodeLabel alignment="center" autoSizePolicy="content" fontFamily="Dialog" fontSize="12" fontStyle="plain" hasBackgroundColor="false" hasLineColor="false" height="20.344114303588867" horizontalTextPosition="center" iconTextGap="4" modelName="custom" rotationAngle="270.0" textColor="#000000" verticalTextPosition="bottom" visible="true" width="68.27244567871094" x="3.0" xml:space="preserve" y="219.86377716064453">Economical<y:LabelModel><y:RowNodeLabelModel offset="3.0"/></y:LabelModel><y:ModelParameter><y:RowNodeLabelModelParameter horizontalPosition="0.0" id="row_2" inside="true"/></y:ModelParameter></y:NodeLabel>
          <y:NodeLabel alignment="center" autoSizePolicy="content" fontFamily="Dialog" fontSize="12" fontStyle="plain" hasBackgroundColor="false" hasLineColor="false" height="20.344114303588867" horizontalTextPosition="center" iconTextGap="4" modelName="custom" rotationAngle="270.0" textColor="#000000" verticalTextPosition="bottom" visible="true" width="56.71635437011719" x="3.0" xml:space="preserve" y="305.6418228149414">Technical<y:LabelModel><y:RowNodeLabelModel offset="3.0"/></y:LabelModel><y:ModelParameter><y:RowNodeLabelModelParameter horizontalPosition="0.0" id="row_3" inside="true"/></y:ModelParameter></y:NodeLabel>
          <y:NodeLabel alignment="center" autoSizePolicy="content" fontFamily="Dialog" fontSize="12" fontStyle="plain" hasBackgroundColor="false" hasLineColor="false" height="20.344114303588867" horizontalTextPosition="center" iconTextGap="4" modelName="custom" rotationAngle="270.0" textColor="#000000" verticalTextPosition="bottom" visible="true" width="59.7763671875" x="3.0" xml:space="preserve" y="384.11181640625">Individual<y:LabelModel><y:RowNodeLabelModel offset="3.0"/></y:LabelModel><y:ModelParameter><y:RowNodeLabelModelParameter horizontalPosition="0.0" id="row_4" inside="true"/></y:ModelParameter></y:NodeLabel>
          <y:NodeLabel alignment="center" autoSizePolicy="content" fontFamily="Dialog" fontSize="12" fontStyle="plain" hasBackgroundColor="false" hasLineColor="false" height="20.344114303588867" horizontalTextPosition="center" iconTextGap="4" modelName="custom" textColor="#000000" verticalTextPosition="bottom" visible="true" width="72.01644897460938" x="527.9917755126953" xml:space="preserve" y="33.0">Användning<y:LabelModel><y:ColumnNodeLabelModel offset="3.0"/></y:LabelModel><y:ModelParameter><y:ColumnNodeLabelModelParameter id="column_4" inside="true" verticalPosition="0.0"/></y:ModelParameter></y:NodeLabel>
          <y:StyleProperties>
            <y:Property class="java.awt.Color" name="yed.table.section.color" value="#7192b2"/>
            <y:Property class="java.lang.Double" name="yed.table.header.height" value="24.0"/>
            <y:Property class="java.awt.Color" name="yed.table.lane.color.main" value="#c4d7ed"/>
            <y:Property class="java.awt.Color" name="yed.table.lane.color.alternating" value="#abc8e2"/>
            <y:Property class="java.awt.Color" name="yed.table.header.color.alternating" value="#abc8e2"/>
            <y:Property class="java.lang.String" name="yed.table.lane.style" value="lane.style.rows"/>
            <y:Property class="java.awt.Color" name="yed.table.header.color.main" value="#c4d7ed"/>
          </y:StyleProperties>
          <y:State autoResize="true" closed="false" closedHeight="80.0" closedWidth="100.0"/>
          <y:Insets bottom="0" bottomF="0.0" left="0" leftF="0.0" right="0" rightF="0.0" top="0" topF="0.0"/>
          <y:BorderInsets bottom="0" bottomF="0.0" left="0" leftF="0.0" right="0" rightF="0.0" top="0" topF="0.0"/>
          <y:Table autoResizeTable="true" defaultColumnWidth="120.0" defaultMinimumColumnWidth="50.0" defaultMinimumRowHeight="50.0" defaultRowHeight="80.0">
            <y:DefaultColumnInsets bottom="0.0" left="0.0" right="0.0" top="24.0"/>
            <y:DefaultRowInsets bottom="0.0" left="24.0" right="0.0" top="0.0"/>
            <y:Insets bottom="0.0" left="0.0" right="0.0" top="30.0"/>
            <y:Columns>
              <y:Column id="column_0" minimumWidth="50.0" width="120.0">
                <y:Insets bottom="0.0" left="0.0" right="0.0" top="24.0"/>
              </y:Column>
              <y:Column id="column_1" minimumWidth="50.0" width="120.0">
                <y:Insets bottom="0.0" left="0.0" right="0.0" top="24.0"/>
              </y:Column>
              <y:Column id="column_2" minimumWidth="50.0" width="120.0">
                <y:Insets bottom="0.0" left="0.0" right="0.0" top="24.0"/>
              </y:Column>
              <y:Column id="column_3" minimumWidth="50.0" width="120.0">
                <y:Insets bottom="0.0" left="0.0" right="0.0" top="24.0"/>
              </y:Column>
              <y:Column id="column_4" minimumWidth="50.0" width="120.0">
                <y:Insets bottom="0.0" left="0.0" right="0.0" top="24.0"/>
              </y:Column>
            </y:Columns>
            <y:Rows>
              <y:Row height="80.0" id="row_0" minimumHeight="50.0">
                <y:Insets bottom="0.0" left="24.0" right="0.0" top="0.0"/>
              </y:Row>
              <y:Row height="80.0" id="row_1" minimumHeight="50.0">
                <y:Insets bottom="0.0" left="24.0" right="0.0" top="0.0"/>
              </y:Row>
              <y:Row height="80.0" id="row_2" minimumHeight="50.0">
                <y:Insets bottom="0.0" left="24.0" right="0.0" top="0.0"/>
              </y:Row>
              <y:Row height="80.0" id="row_3" minimumHeight="50.0">
                <y:Insets bottom="0.0" left="24.0" right="0.0" top="0.0"/>
              </y:Row>
              <y:Row height="80.0" id="row_4" minimumHeight="50.0">
                <y:Insets bottom="0.0" left="24.0" right="0.0" top="0.0"/>
              </y:Row>
            </y:Rows>
          </y:Table>
        </y:TableNode>
      </data>
      <graph edgedefault="directed" id="n0:"/>
    </node>
    <node id="n1">
      <data key="d5"/>
      <data key="d6">
        <y:GenericNode configuration="ShinyPlateNode">
          <y:Geometry height="64.0" width="184.0" x="333.0" y="319.0"/>
          <y:Fill color="#008000" transparent="false"/>
          <y:BorderStyle hasColor="false" type="line" width="1.0"/>
          <y:NodeLabel alignment="center" autoSizePolicy="content" fontFamily="Dialog" fontSize="18" fontStyle="plain" hasBackgroundColor="false" hasLineColor="false" height="28.515846252441406" horizontalTextPosition="center" iconTextGap="4" modelName="custom" textColor="#FFFFFF" verticalTextPosition="bottom" visible="true" width="55.47967529296875" x="64.26016235351562" xml:space="preserve" y="17.742076873779297">Direkt<y:LabelModel><y:SmartNodeLabelModel distance="4.0"/></y:LabelModel><y:ModelParameter><y:SmartNodeLabelModelParameter labelRatioX="0.0" labelRatioY="0.0" nodeRatioX="0.0" nodeRatioY="0.0" offsetX="0.0" offsetY="0.0" upX="0.0" upY="-1.0"/></y:ModelParameter></y:NodeLabel>
          <y:StyleProperties>
            <y:Property class="java.lang.Double" name="ModernNodeRadius" value="10.0"/>
            <y:Property class="java.lang.Boolean" name="ModernNodeShadow" value="true"/>
          </y:StyleProperties>
        </y:GenericNode>
      </data>
    </node>
    <node id="n2">
      <data key="d5"/>
      <data key="d6">
        <y:GenericNode configuration="ShinyPlateNode">
          <y:Geometry height="64.0" width="184.0" x="569.0" y="319.0"/>
          <y:Fill color="#008000" transparent="false"/>
          <y:BorderStyle hasColor="false" type="line" width="1.0"/>
          <y:NodeLabel alignment="center" autoSizePolicy="content" fontFamily="Dialog" fontSize="18" fontStyle="plain" hasBackgroundColor="false" hasLineColor="false" height="28.515846252441406" horizontalTextPosition="center" iconTextGap="4" modelName="custom" textColor="#FFFFFF" verticalTextPosition="bottom" visible="true" width="128.0552215576172" x="27.972389221191406" xml:space="preserve" y="17.742076873779297">Möjliggörande<y:LabelModel><y:SmartNodeLabelModel distance="4.0"/></y:LabelModel><y:ModelParameter><y:SmartNodeLabelModelParameter labelRatioX="0.0" labelRatioY="0.0" nodeRatioX="0.0" nodeRatioY="0.0" offsetX="0.0" offsetY="0.0" upX="0.0" upY="-1.0"/></y:ModelParameter></y:NodeLabel>
          <y:StyleProperties>
            <y:Property class="java.lang.Double" name="ModernNodeRadius" value="10.0"/>
            <y:Property class="java.lang.Boolean" name="ModernNodeShadow" value="true"/>
          </y:StyleProperties>
        </y:GenericNode>
      </data>
    </node>
    <node id="n3">
      <data key="d5"/>
      <data key="d6">
        <y:GenericNode configuration="ShinyPlateNode">
          <y:Geometry height="64.0" width="184.0" x="454.0" y="435.0"/>
          <y:Fill color="#008000" transparent="false"/>
          <y:BorderStyle hasColor="false" type="line" width="1.0"/>
          <y:NodeLabel alignment="center" autoSizePolicy="content" fontFamily="Dialog" fontSize="18" fontStyle="plain" hasBackgroundColor="false" hasLineColor="false" height="28.515846252441406" horizontalTextPosition="center" iconTextGap="4" modelName="custom" textColor="#FFFFFF" verticalTextPosition="bottom" visible="true" width="88.04147338867188" x="47.97926330566406" xml:space="preserve" y="17.742076873779297">Systemisk<y:LabelModel><y:SmartNodeLabelModel distance="4.0"/></y:LabelModel><y:ModelParameter><y:SmartNodeLabelModelParameter labelRatioX="0.0" labelRatioY="0.0" nodeRatioX="0.0" nodeRatioY="0.0" offsetX="0.0" offsetY="0.0" upX="0.0" upY="-1.0"/></y:ModelParameter></y:NodeLabel>
          <y:StyleProperties>
            <y:Property class="java.lang.Double" name="ModernNodeRadius" value="10.0"/>
            <y:Property class="java.lang.Boolean" name="ModernNodeShadow" value="true"/>
          </y:StyleProperties>
        </y:GenericNode>
      </data>
    </node>
  </graph>
  <data key="d7">
    <y:Resources/>
  </data>
</graphml>
